 PassengerCapacity = 1600.0
Sorted list of planes:
[
 model = 'Boeing-777-209', sideNumber = 'MP23AC', passengerCapacity = 400 peoples, personalCount = 6 peoples, capacity = 66.05 ton, 
 model = 'Boeing-777-200', sideNumber = 'MP20AC', passengerCapacity = 400 peoples, personalCount = 6 peoples, capacity = 66.05 ton, 
 model = 'Boeing-777-201', sideNumber = 'MP22AC', passengerCapacity = 400 peoples, personalCount = 6 peoples, capacity = 66.05 ton, 
 model = 'Boeing-777-202', sideNumber = 'MP21AC', passengerCapacity = 400 peoples, personalCount = 5 peoples, capacity = 66.05 ton, 
 model = 'Boeing-777-222', sideNumber = 'MP30AR', mechanizationOption = 'hand2', capacity = 66.05 ton, 
 model = 'Boeing-777-200', sideNumber = 'MP30AC', mechanizationOption = 'hand', capacity = 66.05 ton]
Founding airplanes:
[
 model = 'Boeing-777-200', sideNumber = 'MP20AC', passengerCapacity = 400 peoples, personalCount = 6 peoples, capacity = 66.05 ton, 
 model = 'Boeing-777-202', sideNumber = 'MP21AC', passengerCapacity = 400 peoples, personalCount = 5 peoples, capacity = 66.05 ton, 
 model = 'Boeing-777-201', sideNumber = 'MP22AC', passengerCapacity = 400 peoples, personalCount = 6 peoples, capacity = 66.05 ton, 
 model = 'Boeing-777-209', sideNumber = 'MP23AC', passengerCapacity = 400 peoples, personalCount = 6 peoples, capacity = 66.05 ton, 
 model = 'Boeing-777-200', sideNumber = 'MP30AC', mechanizationOption = 'hand', capacity = 66.05 ton, 
 model = 'Boeing-777-222', sideNumber = 'MP30AR', mechanizationOption = 'hand2', capacity = 66.05 ton]
 PassengerCapacity = 1600.0
Sorted list of planes:
[
 model = 'Boeing-777-209', sideNumber = 'MP23AC', passengerCapacity = 400 peoples, personalCount = 6 peoples, capacity = 66.05 ton, 
 model = 'Boeing-777-200', sideNumber = 'MP20AC', passengerCapacity = 400 peoples, personalCount = 6 peoples, capacity = 66.05 ton, 
 model = 'Boeing-777-201', sideNumber = 'MP22AC', passengerCapacity = 400 peoples, personalCount = 6 peoples, capacity = 66.05 ton, 
 model = 'Boeing-777-202', sideNumber = 'MP21AC', passengerCapacity = 400 peoples, personalCount = 5 peoples, capacity = 66.05 ton, 
 model = 'Boeing-777-222', sideNumber = 'MP30AR', mechanizationOption = 'hand2', capacity = 66.05 ton, 
 model = 'Boeing-777-200', sideNumber = 'MP30AC', mechanizationOption = 'hand', capacity = 66.05 ton]
 PassengerCapacity = 1600.0
Sorted list of planes:
[
 model = 'Boeing-777-209', sideNumber = 'MP23AC', passengerCapacity = 400 peoples, personalCount = 6 peoples, capacity = 66.05 ton, 
 model = 'Boeing-777-200', sideNumber = 'MP20AC', passengerCapacity = 400 peoples, personalCount = 6 peoples, capacity = 66.05 ton, 
 model = 'Boeing-777-201', sideNumber = 'MP22AC', passengerCapacity = 400 peoples, personalCount = 6 peoples, capacity = 66.05 ton, 
 model = 'Boeing-777-202', sideNumber = 'MP21AC', passengerCapacity = 400 peoples, personalCount = 5 peoples, capacity = 66.05 ton, 
 model = 'Boeing-777-222', sideNumber = 'MP30AR', mechanizationOption = 'hand2', capacity = 66.05 ton, 
 model = 'Boeing-777-200', sideNumber = 'MP30AC', mechanizationOption = 'hand', capacity = 66.05 ton]
Has not been found in [100,000000, 500,000000]
 PassengerCapacity = 1600.0
Capacity = 396.3
Sorted list of planes:
[
 model = 'Boeing-777-209', sideNumber = 'MP23AC', passengerCapacity = 400 peoples, personalCount = 6 peoples, capacity = 66.05 ton, 
 model = 'Boeing-777-200', sideNumber = 'MP20AC', passengerCapacity = 400 peoples, personalCount = 6 peoples, capacity = 66.05 ton, 
 model = 'Boeing-777-201', sideNumber = 'MP22AC', passengerCapacity = 400 peoples, personalCount = 6 peoples, capacity = 66.05 ton, 
 model = 'Boeing-777-202', sideNumber = 'MP21AC', passengerCapacity = 400 peoples, personalCount = 5 peoples, capacity = 66.05 ton, 
 model = 'Boeing-777-222', sideNumber = 'MP30AR', mechanizationOption = 'hand2', capacity = 66.05 ton, 
 model = 'Boeing-777-200', sideNumber = 'MP30AC', mechanizationOption = 'hand', capacity = 66.05 ton]
Has not been found in [100,000000, 500,000000]
PassengerCapacity = 1600.0
Capacity = 396.3
Sorted list of planes:
[
 model = 'Boeing-777-209', sideNumber = 'MP23AC', passengerCapacity = 400 peoples, personalCount = 6 peoples, capacity = 66.05 ton, 
 model = 'Boeing-777-200', sideNumber = 'MP20AC', passengerCapacity = 400 peoples, personalCount = 6 peoples, capacity = 66.05 ton, 
 model = 'Boeing-777-201', sideNumber = 'MP22AC', passengerCapacity = 400 peoples, personalCount = 6 peoples, capacity = 66.05 ton, 
 model = 'Boeing-777-202', sideNumber = 'MP21AC', passengerCapacity = 400 peoples, personalCount = 5 peoples, capacity = 66.05 ton, 
 model = 'Boeing-777-222', sideNumber = 'MP30AR', mechanizationOption = 'hand2', capacity = 66.05 ton, 
 model = 'Boeing-777-200', sideNumber = 'MP30AC', mechanizationOption = 'hand', capacity = 66.05 ton]
Has not been found fuel consumption in [100,000000, 500,000000]
PassengerCapacity = 1600.0
Capacity = 396.3
Sorted list of planes:
[
 model = 'Boeing-777-209', sideNumber = 'MP23AC', passengerCapacity = 400 peoples, personalCount = 6 peoples, capacity = 66.05 ton, 
 model = 'Boeing-777-200', sideNumber = 'MP20AC', passengerCapacity = 400 peoples, personalCount = 6 peoples, capacity = 66.05 ton, 
 model = 'Boeing-777-201', sideNumber = 'MP22AC', passengerCapacity = 400 peoples, personalCount = 6 peoples, capacity = 66.05 ton, 
 model = 'Boeing-777-202', sideNumber = 'MP21AC', passengerCapacity = 400 peoples, personalCount = 5 peoples, capacity = 66.05 ton, 
 model = 'Boeing-777-222', sideNumber = 'MP30AR', mechanizationOption = 'hand2', capacity = 66.05 ton, 
 model = 'Boeing-777-200', sideNumber = 'MP30AC', mechanizationOption = 'hand', capacity = 66.05 ton]
Has not been found fuel consumption in [100,000000, 500,000000]
PassengerCapacity = 1600.0
Capacity = 396.3
Sorted list of planes:
[
 model = 'Boeing-777-209', sideNumber = 'MP23AC', passengerCapacity = 400 peoples, personalCount = 6 peoples, capacity = 66.05 ton, 
 model = 'Boeing-777-200', sideNumber = 'MP20AC', passengerCapacity = 400 peoples, personalCount = 6 peoples, capacity = 66.05 ton, 
 model = 'Boeing-777-201', sideNumber = 'MP22AC', passengerCapacity = 400 peoples, personalCount = 6 peoples, capacity = 66.05 ton, 
 model = 'Boeing-777-202', sideNumber = 'MP21AC', passengerCapacity = 400 peoples, personalCount = 5 peoples, capacity = 66.05 ton, 
 model = 'Boeing-777-222', sideNumber = 'MP30AR', mechanizationOption = 'hand2', capacity = 66.05 ton, 
 model = 'Boeing-777-200', sideNumber = 'MP30AC', mechanizationOption = 'hand', capacity = 66.05 ton]
Has not been found fuel consumption in [100,000000, 500,000000]
PassengerCapacity = 1600.0
Capacity = 396.3
Sorted list of planes:
[
 model = 'Boeing-777-209', sideNumber = 'MP23AC', passengerCapacity = 400 peoples, personalCount = 6 peoples, capacity = 66.05 ton, 
 model = 'Boeing-777-200', sideNumber = 'MP20AC', passengerCapacity = 400 peoples, personalCount = 6 peoples, capacity = 66.05 ton, 
 model = 'Boeing-777-201', sideNumber = 'MP22AC', passengerCapacity = 400 peoples, personalCount = 6 peoples, capacity = 66.05 ton, 
 model = 'Boeing-777-202', sideNumber = 'MP21AC', passengerCapacity = 400 peoples, personalCount = 5 peoples, capacity = 66.05 ton, 
 model = 'Boeing-777-222', sideNumber = 'MP30AR', mechanizationOption = 'hand2', capacity = 66.05 ton, 
 model = 'Boeing-777-200', sideNumber = 'MP30AC', mechanizationOption = 'hand', capacity = 66.05 ton]
Has not been found fuel consumption in [100,000000, 500,000000]
PassengerCapacity = 1600.0
Capacity = 396.3
Sorted list of planes:
[
 model = 'Boeing-777-209', sideNumber = 'MP23AC', passengerCapacity = 400 peoples, personalCount = 6 peoples, capacity = 66.05 ton, 
 model = 'Boeing-777-200', sideNumber = 'MP20AC', passengerCapacity = 400 peoples, personalCount = 6 peoples, capacity = 66.05 ton, 
 model = 'Boeing-777-201', sideNumber = 'MP22AC', passengerCapacity = 400 peoples, personalCount = 6 peoples, capacity = 66.05 ton, 
 model = 'Boeing-777-202', sideNumber = 'MP21AC', passengerCapacity = 400 peoples, personalCount = 5 peoples, capacity = 66.05 ton, 
 model = 'Boeing-777-222', sideNumber = 'MP30AR', mechanizationOption = 'hand2', capacity = 66.05 ton, 
 model = 'Boeing-777-200', sideNumber = 'MP30AC', mechanizationOption = 'hand', capacity = 66.05 ton]
Has not been found fuel consumption in [100,000000, 500,000000]
PassengerCapacity = 1600.0
Capacity = 396.3
Sorted list of planes:
[
 model = 'Boeing-777-209', sideNumber = 'MP23AC', passengerCapacity = 400 peoples, personalCount = 6 peoples, capacity = 66.05 ton, 
 model = 'Boeing-777-200', sideNumber = 'MP20AC', passengerCapacity = 400 peoples, personalCount = 6 peoples, capacity = 66.05 ton, 
 model = 'Boeing-777-201', sideNumber = 'MP22AC', passengerCapacity = 400 peoples, personalCount = 6 peoples, capacity = 66.05 ton, 
 model = 'Boeing-777-202', sideNumber = 'MP21AC', passengerCapacity = 400 peoples, personalCount = 5 peoples, capacity = 66.05 ton, 
 model = 'Boeing-777-222', sideNumber = 'MP30AR', mechanizationOption = 'hand2', capacity = 66.05 ton, 
 model = 'Boeing-777-200', sideNumber = 'MP30AC', mechanizationOption = 'hand', capacity = 66.05 ton]
Has not been found fuel consumption in [100,000000, 500,000000]
PassengerCapacity = 1600.0
Capacity = 396.3
PassengerCapacity = 1600.0
Capacity = 396.3
Sorted list of planes:
[
 model = 'Boeing-777-209', sideNumber = 'MP23AC', passengerCapacity = 400 peoples, personalCount = 6 peoples, capacity = 66.05 ton, 
 model = 'Boeing-777-200', sideNumber = 'MP20AC', passengerCapacity = 400 peoples, personalCount = 6 peoples, capacity = 66.05 ton, 
 model = 'Boeing-777-201', sideNumber = 'MP22AC', passengerCapacity = 400 peoples, personalCount = 6 peoples, capacity = 66.05 ton, 
 model = 'Boeing-777-202', sideNumber = 'MP21AC', passengerCapacity = 400 peoples, personalCount = 5 peoples, capacity = 66.05 ton, 
 model = 'Boeing-777-222', sideNumber = 'MP30AR', mechanizationOption = 'hand2', capacity = 66.05 ton, 
 model = 'Boeing-777-200', sideNumber = 'MP30AC', mechanizationOption = 'hand', capacity = 66.05 ton, 
 model = 'Boeing-777-200', sideNumber = 'MP30AC', mechanizationOption = 'hand', capacity = 66.05 ton]
Has not been found fuel consumption in [100,000000, 500,000000]
PassengerCapacity = 1600.0
Capacity = 396.3
Sorted list of planes:
[
 model = 'Boeing-777-209', sideNumber = 'MP23AC', passengerCapacity = 400 peoples, personalCount = 6 peoples, capacity = 66.05 ton, 
 model = 'Boeing-777-200', sideNumber = 'MP20AC', passengerCapacity = 400 peoples, personalCount = 6 peoples, capacity = 66.05 ton, 
 model = 'Boeing-777-201', sideNumber = 'MP22AC', passengerCapacity = 400 peoples, personalCount = 6 peoples, capacity = 66.05 ton, 
 model = 'Boeing-777-202', sideNumber = 'MP21AC', passengerCapacity = 400 peoples, personalCount = 5 peoples, capacity = 66.05 ton, 
 model = 'Boeing-777-222', sideNumber = 'MP30AR', mechanizationOption = 'hand2', capacity = 66.05 ton, 
 model = 'Boeing-777-200', sideNumber = 'MP30AC', mechanizationOption = 'hand', capacity = 66.05 ton]
Has not been found fuel consumption in [100,000000, 500,000000]
